digraph G {
	graph [name=G];
	"libdb5.3:amd64 (= 5.3.28-12)" -> "libc6:amd64 (= 2.23-5)"	[key=0];
	"perl-base:amd64 (= 5.22.2-3)" -> "dpkg:amd64 (= 1.18.10)"	[key=0];
	"perl-base:amd64 (= 5.22.2-3)" -> "libc6:amd64 (= 2.23-5)"	[key=0];
	"libattr1:amd64 (= 1:2.4.47-2)" -> "libc6:amd64 (= 2.23-5)"	[key=0];
	"libattr1:amd64 (= 1:2.4.47-2)" -> "multiarch-support:amd64 (= 2.23-5)"	[key=0];
	"dpkg:amd64 (= 1.18.10)" -> "liblzma5:amd64 (= 5.1.1alpha+20120614-2.1)"	[key=0];
	"dpkg:amd64 (= 1.18.10)" -> "tar:amd64 (= 1.29b-1)"	[key=0];
	"dpkg:amd64 (= 1.18.10)" -> "libc6:amd64 (= 2.23-5)"	[key=0];
	"dpkg:amd64 (= 1.18.10)" -> "libselinux1:amd64 (= 2.5-3)"	[key=0];
	"dpkg:amd64 (= 1.18.10)" -> "libbz2-1.0:amd64 (= 1.0.6-8)"	[key=0];
	"dpkg:amd64 (= 1.18.10)" -> "zlib1g:amd64 (= 1:1.2.8.dfsg-2+b1)"	[key=0];
	"libperl5.22:amd64 (= 5.22.2-3)" -> "libdb5.3:amd64 (= 5.3.28-12)"	[key=0];
	"libperl5.22:amd64 (= 5.22.2-3)" -> "libc6:amd64 (= 2.23-5)"	[key=0];
	"libperl5.22:amd64 (= 5.22.2-3)" -> "perl-modules-5.22:amd64 (= 5.22.2-3)"	[key=0];
	"libperl5.22:amd64 (= 5.22.2-3)" -> "libgdbm3:amd64 (= 1.8.3-14)"	[key=0];
	"libperl5.22:amd64 (= 5.22.2-3)" -> "libbz2-1.0:amd64 (= 1.0.6-8)"	[key=0];
	"libperl5.22:amd64 (= 5.22.2-3)" -> "zlib1g:amd64 (= 1:1.2.8.dfsg-2+b1)"	[key=0];
	"liblzma5:amd64 (= 5.1.1alpha+20120614-2.1)" -> "libc6:amd64 (= 2.23-5)"	[key=0];
	"tar:amd64 (= 1.29b-1)" -> "libc6:amd64 (= 2.23-5)"	[key=0];
	"tar:amd64 (= 1.29b-1)" -> "libacl1:amd64 (= 2.2.52-3)"	[key=0];
	"tar:amd64 (= 1.29b-1)" -> "libselinux1:amd64 (= 2.5-3)"	[key=0];
	"libc6:amd64 (= 2.23-5)" -> "libgcc1:amd64 (= 1:6.2.0-1)"	[key=0];
	"multiarch-support:amd64 (= 2.23-5)" -> "libc6:amd64 (= 2.23-5)"	[key=0];
	"libgcc1:amd64 (= 1:6.2.0-1)" -> "libc6:amd64 (= 2.23-5)"	[key=0];
	"libgcc1:amd64 (= 1:6.2.0-1)" -> "gcc-6-base:amd64 (= 6.2.0-1)"	[key=0];
	"libacl1:amd64 (= 2.2.52-3)" -> "libattr1:amd64 (= 1:2.4.47-2)"	[key=0];
	"libacl1:amd64 (= 2.2.52-3)" -> "libc6:amd64 (= 2.23-5)"	[key=0];
	"perl-modules-5.22:amd64 (= 5.22.2-3)" -> "perl-base:amd64 (= 5.22.2-3)"	[key=0];
	"perl-modules-5.22:amd64 (= 5.22.2-3)" -> "dpkg:amd64 (= 1.18.10)"	[key=0];
	"perl:amd64 (= 5.22.2-3)" -> "perl-base:amd64 (= 5.22.2-3)"	[key=0];
	"perl:amd64 (= 5.22.2-3)" -> "dpkg:amd64 (= 1.18.10)"	[key=0];
	"perl:amd64 (= 5.22.2-3)" -> "libperl5.22:amd64 (= 5.22.2-3)"	[key=0];
	"perl:amd64 (= 5.22.2-3)" -> "perl-modules-5.22:amd64 (= 5.22.2-3)"	[key=0];
	"libgdbm3:amd64 (= 1.8.3-14)" -> "dpkg:amd64 (= 1.18.10)"	[key=0];
	"libgdbm3:amd64 (= 1.8.3-14)" -> "libc6:amd64 (= 2.23-5)"	[key=0];
	"libgdbm3:amd64 (= 1.8.3-14)" -> "install-info:amd64 (= 6.1.0.dfsg.1-8)"	[key=0];
	"libselinux1:amd64 (= 2.5-3)" -> "libc6:amd64 (= 2.23-5)"	[key=0];
	"libselinux1:amd64 (= 2.5-3)" -> "libpcre3:amd64 (= 2:8.39-2)"	[key=0];
	"libbz2-1.0:amd64 (= 1.0.6-8)" -> "libc6:amd64 (= 2.23-5)"	[key=0];
	"zlib1g:amd64 (= 1:1.2.8.dfsg-2+b1)" -> "libc6:amd64 (= 2.23-5)"	[key=0];
	"zlib1g:amd64 (= 1:1.2.8.dfsg-2+b1)" -> "multiarch-support:amd64 (= 2.23-5)"	[key=0];
	"libpcre3:amd64 (= 2:8.39-2)" -> "libc6:amd64 (= 2.23-5)"	[key=0];
	"libpcre3:amd64 (= 2:8.39-2)" -> "multiarch-support:amd64 (= 2.23-5)"	[key=0];
	"install-info:amd64 (= 6.1.0.dfsg.1-8)" -> "dpkg:amd64 (= 1.18.10)"	[key=0];
	"install-info:amd64 (= 6.1.0.dfsg.1-8)" -> "libc6:amd64 (= 2.23-5)"	[key=0];
}
